<?xml version="1.0" encoding="utf-8"?>
<!-- Generator: Adobe Illustrator 25.3.1, SVG Export Plug-In . SVG Version: 6.00 Build 0)  -->
<svg version="1.1" xmlns="http://www.w3.org/2000/svg" xmlns:xlink="http://www.w3.org/1999/xlink" x="0px" y="0px"
	 width="136px" viewBox="0 0 136 136" style="enable-background:new 0 0 136 136;" xml:space="preserve">
<style type="text/css">
	.st0{fill:#FFFFFF;}
	.st1{fill:#78DEA2;}
</style>
<g>
	<ellipse transform="matrix(0.2783 -0.9605 0.9605 0.2783 -16.2358 114.3933)" cx="68" cy="68" rx="67.1" ry="66.8"/>
	<path class="st0" d="M68.1,3.1c6.1,0,12.1,0.9,18,2.6c34.2,9.9,54,46,44,80.4c-4,13.8-12.2,25.6-23.7,34.1
		c-11.1,8.3-24.8,12.8-38.5,12.8c-6.1,0-12.1-0.9-18-2.6c-34.2-9.9-54-46-44-80.4c4-13.8,12.2-25.6,23.7-34.1
		C40.7,7.6,54.4,3.1,68.1,3.1 M68.1,0.1C38.7,0.1,11.7,19.4,3,49.2c-10.5,36,10.2,73.7,46,84.1c6.3,1.8,12.6,2.7,18.8,2.7
		c29.4,0,56.5-19.3,65.1-49.1c10.5-36-10.2-73.7-46-84.1C80.7,1,74.3,0.1,68.1,0.1L68.1,0.1z"/>
</g>
<g>
	<path class="st0" d="M30.7,40.2c-0.1,0-0.2-0.1-0.3-0.1c-0.1-0.1-0.1-0.1-0.1-0.2s0-0.1,0.1-0.2c0.2-0.2,0.4-0.5,0.5-0.8
		s0.1-0.5,0-0.6l-6.7-6.6c-0.2-0.2-0.3-0.2-0.5-0.2c-0.2,0-0.3,0.1-0.5,0.2c-0.2,0.1-0.3,0.2-0.5,0.4c-0.1,0.1-0.2,0.1-0.2,0.1
		c-0.1,0-0.1,0-0.2-0.1C22,32,22,31.9,21.9,31.8c0-0.1,0-0.2,0-0.3l4.2-4.3c0.1-0.1,0.1-0.1,0.3,0c0.1,0,0.2,0.1,0.3,0.1
		c0.2,0.2,0.2,0.3,0,0.4c-0.4,0.4-0.6,0.7-0.7,1c-0.1,0.3-0.1,0.5,0.2,0.8l6.7,6.5c0.2,0.2,0.4,0.3,0.5,0.2c0.2,0,0.3-0.1,0.5-0.3
		l1.7-1.7c0.2-0.2,0.3-0.5,0.2-0.9c0-0.4-0.1-0.9-0.3-1.3c-0.2-0.5-0.4-0.9-0.6-1.4c0-0.1,0-0.2,0-0.3s0.2-0.3,0.2-0.3
		c0.1-0.1,0.2-0.2,0.3-0.2c0.1,0,0.2,0,0.3,0.1l2.4,3.1L31,40.2C30.9,40.3,30.8,40.3,30.7,40.2z"/>
	<path class="st0" d="M41.9,29.6c-1.1,0-2.2-0.4-3.1-1c-0.9-0.6-1.7-1.5-2.3-2.5c-0.6-1.1-0.9-2.1-0.9-3.3c0-1.1,0.3-2.2,0.9-3.1
		c0.6-1,1.5-1.8,2.6-2.4c1.2-0.6,2.3-0.9,3.4-0.9c1.1,0,2.2,0.3,3.1,0.9c0.9,0.6,1.7,1.4,2.3,2.5s0.9,2.2,0.9,3.3
		c0,1.1-0.3,2.2-0.9,3.2c-0.6,1-1.5,1.8-2.6,2.4C44.1,29.3,43,29.6,41.9,29.6z M46.3,25.5c0-1.1-0.5-2.5-1.4-4.1
		c-0.9-1.6-1.8-2.7-2.7-3.3c-0.9-0.6-1.9-0.6-2.8-0.1c-0.9,0.5-1.4,1.3-1.4,2.4s0.5,2.4,1.3,4c0.9,1.6,1.8,2.7,2.7,3.3
		c0.9,0.6,1.9,0.7,2.8,0.1C45.9,27.4,46.3,26.6,46.3,25.5z"/>
	<path class="st0" d="M52.2,24.6c-0.1-0.1-0.1-0.2-0.1-0.3c0-0.1,0-0.2,0-0.2c0-0.1,0.1-0.1,0.2-0.1c1.1-0.3,1.5-0.6,1.5-1l-1.5-8.7
		c0-0.2-0.2-0.4-0.4-0.6c-0.2-0.2-0.5-0.3-0.8-0.3c-0.3-0.1-0.5-0.1-0.7-0.1c-0.1,0-0.2,0-0.3,0c0,0-0.1-0.1-0.1-0.2
		c0-0.1,0-0.2,0-0.3c0-0.1,0.1-0.2,0.2-0.2l4.2-0.7l8.4,7l0.1,0l-1.1-6.6c0-0.2-0.2-0.4-0.3-0.5c-0.2-0.1-0.4-0.1-0.5-0.1
		c-0.2,0-0.4,0-0.8,0c-0.1,0-0.2,0-0.3,0c0,0-0.1-0.1-0.1-0.2c0-0.1,0-0.2,0-0.3c0-0.1,0.1-0.2,0.2-0.2l4.1-0.7c0.1,0,0.2,0,0.2,0.1
		c0.1,0.1,0.1,0.2,0.1,0.3c0,0.1,0,0.2,0,0.2c0,0.1-0.1,0.1-0.2,0.1c-1,0.3-1.4,0.6-1.4,1.1l1.7,9.8c0,0.1,0,0.2,0.1,0.3l0.1,0.3
		c0.1,0.2,0,0.4-0.2,0.5S64.1,23,63.8,23c-0.1,0-0.2,0-0.3,0c-0.1,0-0.2-0.1-0.2-0.1l-9.7-8.1l-0.1,0l1.4,7.8c0,0.2,0.1,0.3,0.3,0.4
		c0.2,0.1,0.4,0.1,0.6,0.1c0.2,0,0.5,0,0.8,0l0.2,0c0.1,0,0.2,0,0.3,0c0,0,0.1,0.1,0.1,0.2c0,0.1,0,0.2,0,0.3c0,0.1-0.1,0.2-0.2,0.2
		l-4.4,0.8C52.4,24.7,52.3,24.7,52.2,24.6z"/>
	<path class="st0" d="M71.3,22.7c-1-0.6-1.8-1.4-2.4-2.5c-0.6-1.1-0.8-2.4-0.5-3.8c0.2-1.5,0.8-2.7,1.7-3.5c0.9-0.8,1.9-1.4,3.1-1.7
		c1.2-0.3,2.3-0.3,3.4-0.1c1,0.2,1.9,0.4,2.6,0.7c0.7,0.3,1.3,0.6,1.7,0.8l-0.2,2.7c0,0.1-0.1,0.2-0.2,0.2c-0.1,0.1-0.2,0.1-0.3,0.1
		l-0.1,0c-0.1,0-0.3-0.1-0.4-0.1c-0.1-0.1-0.2-0.1-0.2-0.2c-0.1-0.9-0.4-1.6-0.8-2.2c-0.4-0.6-1.2-0.9-2.1-1.1
		c-0.5-0.1-1.1,0-1.7,0.2c-0.6,0.2-1.2,0.7-1.8,1.5c-0.6,0.8-1,1.9-1.2,3.4c-0.2,1.3-0.2,2.4,0.1,3.3c0.3,0.9,0.7,1.6,1.2,2
		c0.5,0.5,1.1,0.7,1.6,0.8c0.7,0.1,1.2,0.1,1.5-0.1c0.3-0.2,0.5-0.4,0.5-0.7l0.4-2.3c0-0.2,0-0.4-0.2-0.6c-0.1-0.1-0.3-0.2-0.5-0.3
		s-0.5-0.1-0.8-0.2c-0.1,0-0.2-0.1-0.2-0.1c0,0,0-0.1,0-0.3c0-0.1,0.1-0.2,0.1-0.3c0.1-0.1,0.2-0.1,0.2-0.1l5.4,0.9
		c0.1,0,0.1,0.1,0.2,0.2c0,0.1,0,0.2,0,0.3c0,0.1,0,0.2-0.1,0.2c0,0-0.1,0.1-0.2,0.1c-0.3,0-0.5,0-0.7,0.1c-0.2,0.1-0.3,0.2-0.3,0.3
		l-0.5,3.2c-0.1,0.1-0.4,0.3-0.9,0.4c-0.5,0.1-1.1,0.2-1.8,0.3c-0.7,0-1.5,0-2.3-0.1C73.3,23.7,72.3,23.3,71.3,22.7z"/>
	<path class="st0" d="M87.1,27.2c0-0.1,0-0.2,0.1-0.3c0.1-0.1,0.1-0.1,0.2-0.2c0.1,0,0.1,0,0.2,0c0.3,0.2,0.6,0.2,0.9,0.3
		c0.3,0,0.5,0,0.6-0.2l5.1-8c0.1-0.2,0.2-0.4,0.1-0.5c0-0.2-0.1-0.3-0.3-0.4c-0.1-0.1-0.3-0.3-0.5-0.4c-0.1-0.1-0.2-0.1-0.2-0.2
		c0-0.1,0-0.1,0.1-0.2c0-0.1,0.1-0.1,0.2-0.2c0.1-0.1,0.2-0.1,0.3,0l5.1,3.2c0.1,0,0.1,0.1,0.1,0.2c0,0.1,0,0.2-0.1,0.3
		c-0.1,0.2-0.3,0.2-0.4,0.1c-0.5-0.3-0.8-0.5-1.2-0.5c-0.3-0.1-0.5,0.1-0.7,0.3l-5,7.9c-0.1,0.2-0.2,0.4-0.1,0.6
		c0.1,0.1,0.2,0.3,0.4,0.4l2,1.3c0.2,0.1,0.5,0.2,0.9,0c0.4-0.1,0.8-0.3,1.3-0.6c0.4-0.3,0.9-0.5,1.2-0.9c0.1-0.1,0.2-0.1,0.3,0
		s0.3,0.1,0.4,0.2c0.1,0.1,0.2,0.2,0.3,0.3c0.1,0.1,0.1,0.2,0,0.3l-2.5,3l-8.6-5.5C87.1,27.4,87.1,27.3,87.1,27.2z"/>
	<path class="st0" d="M97.5,34.4c0-0.1,0.1-0.2,0.1-0.3c0.1-0.1,0.1-0.1,0.2-0.1c0.1,0,0.1,0,0.2,0.1c0.3,0.2,0.5,0.4,0.7,0.5
		c0.2,0.1,0.4,0.1,0.5,0l6.8-6.6c0.2-0.2,0.2-0.3,0.2-0.5c0-0.2-0.1-0.3-0.2-0.5s-0.2-0.3-0.4-0.5c-0.1-0.1-0.1-0.2-0.1-0.2
		c0-0.1,0-0.1,0.1-0.2c0.1-0.1,0.2-0.1,0.3-0.1c0.1,0,0.2,0,0.3,0l3.9,4c0.1,0.1,0.1,0.2,0,0.3c0,0.1-0.1,0.2-0.1,0.3
		c-0.1,0.1-0.1,0.1-0.2,0.1s-0.1,0-0.2-0.1c-0.6-0.6-1.1-0.7-1.3-0.5l-6.8,6.6c-0.2,0.2-0.2,0.3-0.2,0.5c0,0.2,0.1,0.3,0.2,0.5
		c0.1,0.2,0.2,0.3,0.4,0.5c0.1,0.1,0.1,0.2,0.1,0.2c0,0.1,0,0.1-0.1,0.2c-0.1,0.1-0.2,0.1-0.3,0.1c-0.1,0-0.2,0-0.3,0l-3.9-4
		C97.4,34.6,97.4,34.5,97.5,34.4z"/>
	<path class="st0" d="M113.1,34.8c0-0.2,0-0.3,0-0.4c0-0.1-0.1-0.3-0.2-0.5c-0.1-0.1-0.1-0.2-0.1-0.2c-0.1-0.1-0.1-0.2-0.1-0.3
		c0-0.1,0.1-0.1,0.2-0.2c0.1,0,0.2-0.1,0.3-0.1c0.1,0,0.2,0,0.2,0.1l2.9,5c0,0.1,0,0.2,0,0.3c-0.1,0.1-0.1,0.2-0.2,0.2
		c-0.1,0-0.2,0.1-0.2,0.1c-0.1,0-0.1-0.1-0.2-0.1l-0.2-0.3c-0.2-0.3-0.3-0.4-0.4-0.6s-0.2-0.1-0.3-0.1c0,0-0.1,0-0.1,0.1l-5.4,7.2
		l8.5-1.3c0,0,0.1,0,0.1,0c0.1-0.1,0.2-0.3,0.1-0.5c-0.1-0.3-0.2-0.6-0.4-1c0-0.1-0.1-0.2,0-0.2c0-0.1,0.1-0.1,0.2-0.2
		c0.1,0,0.2-0.1,0.3-0.1c0.1,0,0.2,0,0.2,0.1l2,3.5c0,0.1,0,0.2,0,0.3c-0.1,0.1-0.1,0.2-0.2,0.2c-0.1,0.1-0.2,0.1-0.3,0.1
		c-0.1,0-0.1-0.1-0.2-0.2c-0.2-0.3-0.3-0.5-0.5-0.6c-0.1-0.1-0.3-0.2-0.4-0.3c-0.1,0-0.3,0-0.5,0l-12,1.6l-0.5-0.9l7.1-10.1
		C113,35.1,113.1,34.9,113.1,34.8z"/>
	<path class="st0" d="M110.4,52.5c0.1,0,0.1,0.1,0.1,0.2c0.1,0.3,0.2,0.6,0.4,0.8c0.1,0.2,0.3,0.3,0.5,0.3l9.3-2.2
		c0.2-0.1,0.4-0.2,0.5-0.3c0.1-0.2,0.1-0.3,0.1-0.5c0-0.2,0-0.4-0.1-0.7c0-0.1,0-0.2,0-0.3c0,0,0.1-0.1,0.2-0.1c0.1,0,0.2,0,0.3,0
		c0.1,0,0.2,0.1,0.2,0.2l2.3,9.9l-2.7,1c-0.1,0-0.2,0-0.2-0.1c-0.1-0.1-0.1-0.2-0.1-0.2c-0.1-0.3,0-0.5,0.1-0.7
		c0.1-0.1,0.3-0.3,0.6-0.5c0.3-0.2,0.5-0.4,0.6-0.6c0.1-0.1,0.2-0.3,0.3-0.5c0.1-0.2,0-0.4,0-0.6l-0.8-3.3l-4.6,1.1l0.5,2.3
		c0,0.1,0.2,0.2,0.4,0.3c0.2,0.1,0.4,0.1,0.7,0.2c0.3,0,0.4,0,0.6,0c0.2,0,0.3,0.1,0.4,0.3c0,0.1,0,0.2,0,0.3c0,0.1-0.1,0.2-0.2,0.2
		L116,60c-0.1,0-0.2,0-0.2-0.1c-0.1-0.1-0.1-0.2-0.2-0.3c0-0.1,0-0.2,0-0.3c0-0.1,0.1-0.2,0.2-0.2c0.1,0,0.3-0.1,0.6-0.3
		c0.2-0.1,0.4-0.3,0.6-0.5s0.2-0.3,0.2-0.5l-0.5-2.2l-4.1,1c-0.5,0.1-0.7,0.4-0.6,1l0.6,2.5c0.1,0.3,0.2,0.6,0.4,0.8
		c0.2,0.2,0.5,0.4,0.9,0.5c0.4,0.1,0.9,0.3,1.6,0.4c0.1,0,0.2,0.1,0.3,0.2c0.1,0.1,0.1,0.2,0.2,0.3c0,0.1,0,0.2,0,0.4
		c0,0.1-0.1,0.2-0.2,0.2l-3.3,0.4l-2.5-10.4c0-0.1,0-0.2,0.1-0.2c0.1-0.1,0.2-0.1,0.3-0.1C110.3,52.5,110.4,52.5,110.4,52.5z"/>
</g>
<g>
	<g>
		<path class="st0" d="M21.9,103.6c0-0.1,0.1-0.2,0.2-0.3c0.1-0.1,0.1-0.1,0.2-0.1c0.1,0,0.1,0,0.2,0.1c0.3,0.3,0.5,0.4,0.7,0.5
			c0.2,0.1,0.4,0.1,0.5,0l7-6.4c0.2-0.2,0.3-0.3,0.3-0.5s0-0.3-0.1-0.5c-0.1-0.1-0.2-0.3-0.4-0.5c-0.1-0.1-0.1-0.2-0.1-0.2
			c0-0.1,0-0.1,0.1-0.2c0.1-0.1,0.2-0.1,0.3-0.1c0.1,0,0.2,0,0.3,0.1l6.7,7.3l-2,2.3c-0.1,0.1-0.1,0.1-0.2,0.1
			c-0.1,0-0.2-0.1-0.2-0.1c-0.2-0.3-0.3-0.5-0.2-0.7c0.1-0.3,0.2-0.5,0.3-0.8c0.2-0.4,0.3-0.7,0.3-0.9c0.1-0.2,0.1-0.4,0.1-0.6
			c0-0.2-0.1-0.4-0.3-0.6l-2.2-2.4l-3.7,3.4l1.6,1.7c0.1,0.1,0.3,0.1,0.5,0.1c0.2,0,0.5-0.1,0.7-0.2c0.2-0.1,0.4-0.2,0.5-0.3
			c0.2-0.1,0.3-0.1,0.5,0.1c0.1,0.1,0.1,0.1,0.1,0.2c0,0.1,0,0.2-0.1,0.2l-2.9,2.6c-0.1,0.1-0.1,0.1-0.2,0.1c-0.1,0-0.2-0.1-0.2-0.1
			c-0.1-0.1-0.1-0.2-0.1-0.3c0-0.1,0-0.2,0.1-0.3c0.1-0.1,0.2-0.3,0.3-0.5c0.1-0.2,0.2-0.5,0.3-0.7s0-0.4-0.1-0.5l-1.6-1.7l-2.9,2.7
			c-0.2,0.2-0.2,0.4-0.2,0.7s0.2,0.6,0.4,0.9c0.2,0.3,0.4,0.6,0.6,0.8c0.1,0.1,0.1,0.2,0.1,0.2c0,0.1,0,0.1-0.1,0.2
			c-0.1,0.1-0.2,0.1-0.3,0.1c-0.1,0-0.2,0-0.3-0.1l-4.3-4.8C21.8,103.8,21.8,103.7,21.9,103.6z"/>
		<path class="st0" d="M32.5,114.3c0-0.1,0-0.2,0.1-0.3c0.1-0.1,0.1-0.1,0.2-0.2c0.1,0,0.1,0,0.2,0c0.3,0.2,0.6,0.3,0.9,0.3
			c0.3,0,0.5,0,0.6-0.2l5.1-7.9c0.1-0.2,0.2-0.4,0.1-0.5c0-0.2-0.1-0.3-0.3-0.4c-0.1-0.1-0.3-0.3-0.5-0.4c-0.1-0.1-0.2-0.1-0.2-0.2
			c0-0.1,0-0.1,0.1-0.2c0-0.1,0.1-0.1,0.2-0.2c0.1-0.1,0.2-0.1,0.3,0l5.1,3.2c0.1,0,0.1,0.1,0.1,0.2s0,0.2-0.1,0.3
			c-0.1,0.2-0.3,0.2-0.4,0.1c-0.5-0.3-0.8-0.5-1.1-0.5c-0.3-0.1-0.5,0.1-0.7,0.3l-5,7.9c-0.1,0.2-0.2,0.4-0.1,0.6
			c0.1,0.1,0.2,0.3,0.4,0.4l2,1.3c0.2,0.1,0.5,0.2,0.9,0c0.4-0.1,0.8-0.3,1.3-0.6c0.4-0.3,0.9-0.5,1.2-0.9c0.1-0.1,0.2-0.1,0.3,0
			c0.2,0,0.3,0.1,0.4,0.2c0.1,0.1,0.2,0.2,0.3,0.3s0.1,0.2,0,0.3l-2.5,3l-8.6-5.5C32.5,114.5,32.5,114.4,32.5,114.3z"/>
		<path class="st0" d="M48.8,122.6c-0.8-0.8-1.3-1.8-1.6-2.9c-0.2-1.1-0.2-2.2,0.1-3.4c0.3-1.2,0.9-2.2,1.6-3
			c0.8-0.8,1.7-1.4,2.8-1.6c1.1-0.3,2.3-0.3,3.6,0.1c1.3,0.3,2.3,0.9,3.1,1.7c0.8,0.8,1.3,1.7,1.6,2.8c0.3,1.1,0.2,2.2-0.1,3.4
			c-0.3,1.2-0.9,2.2-1.6,3c-0.8,0.8-1.7,1.4-2.8,1.7c-1.1,0.3-2.3,0.3-3.6-0.1C50.7,124,49.6,123.4,48.8,122.6z M54.9,122.7
			c0.8-0.8,1.4-2.1,1.8-3.9c0.5-1.8,0.6-3.2,0.3-4.2c-0.2-1.1-0.9-1.8-1.9-2c-1-0.3-1.9,0-2.7,0.8s-1.4,2.1-1.8,3.8
			c-0.5,1.8-0.6,3.2-0.3,4.3s0.9,1.8,1.9,2.1C53.2,123.8,54.1,123.5,54.9,122.7z"/>
		<path class="st0" d="M66.9,126.4c-0.4-0.1-0.8-0.2-1-0.3c-0.2-0.1-0.4-0.1-0.4-0.2c-0.1,0-0.2-0.1-0.3-0.1c0,0-0.1,0-0.1-0.1
			c-0.1,0-0.1,0-0.2,0c-0.1,0-0.1,0-0.2,0.1c0,0-0.1,0.1-0.2,0.1c-0.1,0.1-0.2,0.2-0.3,0.3c-0.1,0.1-0.2,0.1-0.3,0.1
			c-0.2,0-0.3,0-0.4-0.1c-0.1-0.1-0.1-0.2-0.1-0.3c0-0.1,0-0.3,0-0.4l0-0.4c0-0.4,0-0.8,0-1.2c0-0.4,0-0.6,0-0.7c0-0.4,0-0.6,0-0.7
			c0-0.4,0.2-0.6,0.5-0.6c0.3,0,0.5,0.1,0.5,0.4c0.1,0.2,0.1,0.5,0.2,0.7c0.1,0.2,0.2,0.5,0.4,0.8c0.4,0.6,0.8,1.1,1.5,1.5
			c0.6,0.4,1.3,0.6,2,0.6c0.3,0,0.7-0.1,0.9-0.2c0.3-0.1,0.5-0.3,0.7-0.5c0.2-0.2,0.3-0.5,0.3-0.9c0-0.5-0.1-0.9-0.4-1.2
			c-0.3-0.3-0.6-0.6-0.9-0.9c-0.4-0.2-0.9-0.5-1.5-0.8L67,121c-0.7-0.4-1.3-0.7-1.8-1s-0.8-0.7-1.2-1.2c-0.3-0.5-0.5-1-0.5-1.7
			c0-0.7,0.2-1.3,0.6-1.8c0.4-0.5,0.9-0.9,1.6-1.2c0.7-0.3,1.4-0.4,2.3-0.4c0.4,0,0.8,0,1.1,0.1c0.3,0.1,0.6,0.1,0.9,0.2
			c0,0,0.1,0,0.2,0.1c0.1,0,0.3,0.1,0.4,0.1c0.1,0,0.2,0,0.2,0c0,0,0.1-0.1,0.1-0.1c0.1,0,0.1-0.1,0.1-0.1c0.1,0,0.1-0.1,0.2-0.1
			c0.2,0,0.3,0,0.4,0.1c0.1,0.1,0.2,0.1,0.2,0.2c0,0.3,0,0.7,0.1,1.1c0,0.4,0.1,0.7,0.1,0.9c0,0.4,0.1,0.6,0.1,0.7
			c0,0.2-0.1,0.3-0.2,0.4c-0.1,0.1-0.2,0.1-0.4,0.1c-0.2,0-0.4-0.1-0.4-0.2c0.2,0.4,0.2,0.3-0.1-0.4c-0.3-0.7-0.7-1.3-1.1-1.7
			c-0.5-0.4-1.1-0.6-1.9-0.6c-0.6,0-1.1,0.1-1.5,0.4c-0.4,0.2-0.6,0.6-0.6,1.2c0,0.4,0.1,0.8,0.4,1.2c0.3,0.4,0.7,0.7,1.1,0.9
			c0.4,0.3,1,0.6,1.6,0.9c0.8,0.4,1.4,0.8,1.9,1.1c0.5,0.3,1,0.8,1.3,1.2c0.4,0.5,0.5,1.1,0.5,1.7c0,0.7-0.2,1.4-0.6,1.9
			c-0.4,0.5-1,1-1.7,1.3c-0.7,0.3-1.5,0.4-2.3,0.4C67.8,126.6,67.3,126.5,66.9,126.4z"/>
		<path class="st0" d="M81.4,124.8c-0.5,0-0.8,0-1,0c-0.2,0-0.4,0-0.4-0.1c-0.1,0-0.2,0-0.4-0.1c0,0-0.1,0-0.1,0c-0.1,0-0.1,0-0.2,0
			c-0.1,0-0.1,0-0.1,0.1c0,0-0.1,0.1-0.1,0.2c-0.1,0.2-0.2,0.3-0.2,0.4c-0.1,0.1-0.2,0.1-0.3,0.2c-0.1,0-0.3,0-0.4,0
			c-0.1-0.1-0.2-0.1-0.2-0.3c0-0.1,0-0.3-0.1-0.4l-0.1-0.3c-0.1-0.4-0.2-0.8-0.3-1.1c-0.1-0.4-0.2-0.6-0.2-0.7
			c-0.1-0.3-0.2-0.6-0.2-0.7c-0.1-0.4,0-0.6,0.3-0.7c0.3-0.1,0.5,0,0.6,0.2c0.1,0.2,0.3,0.4,0.4,0.6c0.1,0.2,0.3,0.4,0.6,0.7
			c0.5,0.5,1.1,0.9,1.8,1.1c0.7,0.2,1.4,0.2,2.1,0c0.3-0.1,0.6-0.2,0.9-0.4s0.4-0.4,0.5-0.7c0.1-0.3,0.1-0.6,0-0.9
			c-0.1-0.5-0.3-0.8-0.7-1.1c-0.3-0.3-0.7-0.5-1.1-0.6c-0.4-0.1-1-0.3-1.6-0.5l-0.6-0.1c-0.8-0.2-1.5-0.4-2-0.6
			c-0.5-0.2-1-0.5-1.4-0.8c-0.4-0.4-0.7-0.9-0.9-1.5c-0.2-0.7-0.1-1.3,0.1-1.9c0.2-0.6,0.6-1.1,1.2-1.6c0.6-0.4,1.3-0.8,2.1-1
			c0.4-0.1,0.8-0.2,1.1-0.2c0.3,0,0.6,0,0.9,0c0,0,0.1,0,0.3,0c0.1,0,0.3,0,0.4,0c0.1,0,0.1,0,0.2-0.1s0.1-0.1,0.1-0.1
			c0-0.1,0.1-0.1,0.1-0.1c0.1-0.1,0.1-0.1,0.2-0.1c0.1,0,0.3,0,0.4,0c0.1,0,0.2,0.1,0.2,0.2c0.1,0.3,0.2,0.6,0.3,1.1
			c0.2,0.4,0.2,0.7,0.3,0.8c0.1,0.4,0.2,0.6,0.3,0.7c0,0.2,0,0.3-0.1,0.4s-0.2,0.2-0.4,0.2c-0.2,0.1-0.4,0-0.5-0.1
			c0.3,0.4,0.3,0.2-0.2-0.4c-0.5-0.6-1-1.1-1.5-1.4c-0.5-0.3-1.2-0.3-2-0.1c-0.6,0.2-1,0.4-1.4,0.7c-0.3,0.3-0.4,0.8-0.3,1.3
			c0.1,0.4,0.4,0.8,0.7,1.1c0.4,0.3,0.8,0.5,1.3,0.6c0.5,0.1,1.1,0.3,1.8,0.5c0.9,0.2,1.6,0.4,2.2,0.6c0.6,0.2,1.1,0.5,1.6,0.9
			c0.5,0.4,0.8,0.9,0.9,1.5c0.2,0.7,0.1,1.4-0.1,2s-0.7,1.2-1.3,1.6s-1.3,0.8-2.1,1C82.4,124.8,81.9,124.8,81.4,124.8z"/>
	</g>
</g>
<rect x="27.8" y="49.4" transform="matrix(0.3969 -0.9178 0.9178 0.3969 -33.9776 60.2127)" class="st1" width="2" height="13.2"/>
<rect x="22.3" y="69.7" transform="matrix(0.963 -0.2696 0.2696 0.963 -17.9983 10.3902)" class="st1" width="13.2" height="2"/>
<rect x="97.4" y="84.6" transform="matrix(0.7694 -0.6387 0.6387 0.7694 -35.5322 83.8663)" class="st1" width="2" height="13.2"/>
<rect x="105.2" y="75.6" transform="matrix(0.2278 -0.9737 0.9737 0.2278 2.0495 166.885)" class="st1" width="2" height="13.2"/>
<g>
	<path class="st0" d="M97.5,65.9c0.3-0.8,0.4-4.1-0.6-10.9c-1-6.4-2-9.8-2.5-10.4c-0.7-0.8-1.5-1.1-2.5-1.4l-0.9-0.3l0.3-0.9
		c1.1-3.8,0.8-4.3,0.7-4.4c-0.9-1.2-7.4-3.5-9.7-3.5c0,0,0,0,0,0c-0.3,0-0.7,0.1-0.9,0.3l-0.4,0.5l-0.6-0.2
		c-1.7-0.6-5.5-1.6-8.1-1.6c-1.5,0-1.9,0.3-2,0.4l-0.4,0.5l-0.6-0.2c-1.8-0.6-5.1-1-7.2-1c-0.3,0-0.6,0-0.9,0
		c-1.2,0.1-1.9,0.3-2.2,0.6c0,0-0.1,0.1-0.2,0.5l-0.3,0.8l-0.8-0.1c-0.5-0.1-1.6-0.2-2.8-0.2c-2.1,0-3.1,0.4-3.3,0.8
		c-0.1,0.2-0.4,1-0.8,5.4c-1.1,7.2-3,19.9-3.1,21.9c-0.1,2.3,2,6.1,3.9,9.1l0.5,0.8l-0.1,0.4c-0.6,2-3.8,11.2-8.1,23.3
		c3.8,3,8.1,5.3,13,6.7c5.9,1.7,11.9,2,17.5,1c2.8-12.5,4.9-21.7,5.4-23.3l0.1-0.3l0.2-0.2c0.5-0.4,1.8-1.2,3.7-2.5
		C88,74.3,96,69.1,97.5,65.9z"/>
</g>
<path d="M98.4,66.3c0.8-1.8-0.1-8.6-0.6-11.5c-0.4-2.9-1.6-9.7-2.8-11c-0.8-0.9-1.7-1.3-2.9-1.7c1.2-4,0.9-4.8,0.5-5.3
	c-1.2-1.5-8.3-4-10.6-3.9c-0.7,0-1.2,0.2-1.6,0.6c-2.7-1-9.4-2.6-11.1-1c0,0,0,0-0.1,0.1c-2.1-0.7-6.2-1.1-8.5-1
	c-1.5,0.1-2.4,0.4-2.9,0.9c-0.1,0.2-0.3,0.4-0.4,0.8c-2.1-0.3-6.1-0.5-7.2,1c-0.2,0.3-0.5,0.7-1,5.8c-0.2,1.2-3,19.5-3.1,22
	c-0.1,2.6,1.9,6.3,4,9.7c0.1,0.1,0.2,0.3,0.3,0.4c-0.6,1.9-3.7,11-7.9,22.9c0.6,0.5,1.2,1,1.8,1.4c1.2-3.4,2.3-6.4,3.2-9.1
	c2.9-8.4,4.2-12.2,4.8-14c0,0,0.1,0.1,0.1,0.1c0.7,0.6,1.5,1.2,2.4,1.5c0.9,0.4,1.7,0.5,2.5,0.5c0.8,0,1.5-0.1,2.1-0.3
	c1.3-0.3,2.2-0.7,2.8-0.9c0.6-0.2,1-0.2,1-0.3c0-0.1-0.4-0.3-1.1-0.3c-0.7,0-1.7,0.2-2.9,0.4c-1.2,0.1-2.6,0.2-3.9-0.5
	c-0.7-0.3-1.3-0.8-1.9-1.3c-0.3-0.3-0.6-0.6-0.9-0.9c-0.1-0.1-0.1-0.2-0.2-0.3c-0.1-0.1-0.2-0.3-0.4-0.7c-1-1.7-3.8-6.1-3.7-8.4
	c0.1-1.5,1.4-10.3,2.4-17.1c0.2,4.2,0.4,8,0.9,8.8c0,0,0,0.1,0.1,0.1c0.4,0.6,1.3,1,2.3,1.3c1.5,0.4,3.3,0.5,4.6,0.1
	c0.5,0.4,1.2,0.7,2.2,1c1.7,0.5,4,0.7,6.5,0c0.2,0.2,0.4,0.4,0.7,0.6c-0.3,0.7-0.6,1.5-0.9,2.2c-0.4,0.9-0.7,1.8-1,2.7
	c-0.5,1.8-0.7,3.4-0.8,4.8c-0.2,2.7-0.1,4.4,0.1,4.4c0.2,0,0.5-1.6,0.9-4.3c0.2-1.3,0.5-2.9,1-4.5c0.5-1.4,1.2-3,1.9-4.7
	c0.2,0.1,0.4,0.2,0.7,0.2c0.1,0,0.1,0,0.2,0.1c1.5,0.4,4.3,0.9,6.1,0.2c0.6,0.7,2.3,1.4,3.8,1.8c0.8,0.2,1.6,0.4,2.1,0.5
	c1.4,0.2,2.2,0.1,2.6-0.4c0.2-0.3,1.2-2.4,2.9-6.3c1.3,0.3,2,0.3,2,0.2c0-0.2-2.3-0.7-6.1-2.3c-0.9-0.4-2-0.9-3-1.5
	c-0.3-0.1-0.5-0.3-0.8-0.5c-0.1-0.1-0.2-0.2-0.4-0.3c-0.1-0.1-0.2-0.2-0.3-0.3c-0.4-0.4-0.8-0.9-1.1-1.5c-0.3-0.6-0.4-1.2-0.5-1.9
	c-0.1-0.7-0.1-1.4,0-2.1c0.1-0.7,0.3-1.5,0.6-2.1c0.1-0.3,0.3-0.7,0.5-0.9c0.1-0.1,0.2-0.2,0.3-0.2c0,0,0,0,0,0
	c0.2,0.1,0.4,0.2,0.7,0.3c0.2,0.1,0.5,0.2,0.7,0.3c0.5,0.2,1,0.4,1.5,0.5c1,0.3,2,0.7,3,1c1,0.3,2.1,0.6,3.2,0.9
	c0.9,0.2,1.8,0.5,2.8,0.7c1.6,0.5,2.2,0.7,2.9,1.4c1.3,1.7,3.7,18.2,3,20.1c-1.3,2.9-9.4,8.1-13.8,10.9c-1,0.6-1.7,1.1-2.3,1.5
	c-0.1,0.1-0.2,0.1-0.3,0.2c-0.5,0.2-1,0.4-1.5,0.6c-1,0.3-2,0.5-2.9,0.5c-0.9,0-1.8-0.2-2.6-0.4c-0.2-0.1-0.4-0.1-0.6-0.2
	c-0.2-0.1-0.3-0.1-0.5-0.2c-0.3-0.2-0.7-0.4-1-0.6c-2.5-1.6-4.1-2.7-4.2-2.5c-0.1,0.2,1.2,1.5,3.6,3.4c0.3,0.2,0.6,0.5,1,0.7
	c0.2,0.1,0.4,0.3,0.6,0.4c0.2,0.1,0.4,0.2,0.6,0.3c0.9,0.4,1.9,0.6,3,0.6c0.8,0,1.6-0.1,2.4-0.2c-0.5,1.7-1.7,7-5.5,23.5
	c0.8-0.1,1.6-0.2,2.3-0.4c2.8-12.3,4.8-21.3,5.3-22.8c0.5-0.4,2.1-1.4,3.6-2.4C90.4,73.9,96.9,69.6,98.4,66.3z M52.9,53.2L52,36.6
	c0-0.6,0-0.9,0.2-1c0.8-0.4,4-0.4,5.8,0.1c-0.1,3.7-0.3,11.6,0,18.4C56.3,54.6,53.6,53.9,52.9,53.2z M78.5,50.2c0,0,0.1,0.1,0.1,0.1
	c0.1,0.1,0.3,0.2,0.4,0.3c0.3,0.2,0.6,0.3,0.9,0.5c1.1,0.6,2.2,1,3.2,1.4c1.1,0.4,2.2,0.7,3,0.9c-0.9,2.2-2.2,5.1-2.5,5.7
	c-0.9,0.3-5.4-1-6.2-1.8C77.4,56.6,77.9,53.4,78.5,50.2z M67,55c-3.9,1.2-6.9-0.2-7.6-0.7c-0.4-7.7-0.1-17,0-19.8
	c0-0.4,0-0.5,0.1-0.5c0.5-0.2,2-0.4,4.6-0.1c2.4,0.2,4.3,0.7,4.7,0.9c0.1,0.1,0.2,0.1,0.3,0.2C67.8,45.8,67.1,52.6,67,55z
	 M79.2,38.9c-0.2,0-0.4-0.1-0.6-0.1c-0.1,0-0.2,0-0.3,0.1c-0.1,0-0.2,0.1-0.3,0.1c-0.3,0.2-0.5,0.4-0.7,0.6
	c-0.3,0.4-0.5,0.8-0.7,1.3c-0.3,0.8-0.5,1.7-0.6,2.5c-0.1,0.8-0.1,1.7,0.1,2.5c0.1,0.8,0.4,1.6,0.7,2.3c0.1,0.3,0.3,0.5,0.5,0.8
	c-0.8,4.5-1.1,6.7-1.2,7.7c-0.9,0.5-2.8,0.5-4.9,0c-1.7-0.4-2.6-0.9-2.8-1.1c-0.1-1.4,1.3-13.5,2.3-21.1c0.1-0.1,0.1-0.2,0.2-0.3
	c1.2-0.5,7.3,0.7,9.2,1.5L79.2,38.9z M89.8,42.1c-0.6-0.1-1.1-0.3-1.6-0.4c-1.1-0.3-2.1-0.6-3.1-0.9c-1-0.3-2-0.6-3-0.9
	c-0.4-0.1-0.8-0.3-1.3-0.4l1-4.1c0.1-0.1,0.1-0.2,0.2-0.3c1.4-0.2,7.4,1.9,8.7,3C90.7,38.4,90.6,39.4,89.8,42.1z"/>
</svg>
