<?xml version="1.0" encoding="utf-8"?>
<!-- Generator: Adobe Illustrator 25.3.1, SVG Export Plug-In . SVG Version: 6.00 Build 0)  -->
<svg version="1.1" id="Layer_1" xmlns="http://www.w3.org/2000/svg" xmlns:xlink="http://www.w3.org/1999/xlink" x="0px" y="0px"
	 width="180px" height="104px" viewBox="0 0 180 104" style="enable-background:new 0 0 180 104;" xml:space="preserve">
<style type="text/css">
	.st0{fill:#FFFFFF;}
</style>
<g>
	<path class="st0" d="M104.2,46.1c-0.3-0.4-0.7-0.6-1.2-0.9c-0.5-0.2-1-0.3-1.6-0.3c-0.6,0-1.2,0.1-1.7,0.3s-1,0.5-1.5,0.9
		c-0.4,0.4-0.8,0.9-1.1,1.5c-0.3,0.6-0.6,1.2-0.8,1.9h8.8c0,0,0-0.1,0-0.3s0-0.3,0-0.4c0-0.5-0.1-1-0.2-1.5
		C104.7,46.9,104.5,46.5,104.2,46.1z"/>
	<path class="st0" d="M120.8,46.2c-0.4-0.4-0.8-0.7-1.3-0.9s-1.1-0.3-1.7-0.3c-0.8,0-1.6,0.2-2.3,0.6c-0.7,0.4-1.3,0.9-1.8,1.5
		c-0.5,0.7-0.9,1.5-1.2,2.4s-0.5,1.9-0.5,3c0,0.7,0.1,1.3,0.3,1.9c0.2,0.6,0.5,1.1,0.8,1.5c0.3,0.4,0.8,0.7,1.3,0.9s1,0.3,1.6,0.3
		c0.8,0,1.6-0.2,2.3-0.6c0.7-0.4,1.3-0.9,1.9-1.6c0.5-0.7,0.9-1.5,1.2-2.4s0.5-1.9,0.5-3c0-0.7-0.1-1.3-0.3-1.9
		C121.4,47.1,121.1,46.6,120.8,46.2z"/>
	<path class="st0" d="M132.5,32.2H92.8l-6.5,31.1h33.2l-1.8,8.3h31.8l7-33l-25.4,0.1L132.5,32.2z M107.8,49.8c0,0.2,0,0.4,0,0.7
		s0,0.4-0.1,0.7c0,0.2,0,0.4-0.1,0.5H95.9c0,0.1,0,0.3,0,0.4c0,0.1,0,0.3,0,0.4c0,0.8,0.1,1.5,0.4,2.1c0.2,0.6,0.5,1.1,0.9,1.4
		c0.4,0.4,0.8,0.6,1.3,0.8s1,0.2,1.5,0.2c1.1,0,1.9-0.2,2.6-0.6c0.6-0.4,1.1-0.9,1.5-1.5h2.7c-0.2,0.6-0.5,1.2-0.8,1.7
		c-0.4,0.5-0.9,1-1.5,1.4s-1.3,0.7-2.1,0.9c-0.8,0.2-1.6,0.3-2.6,0.3c-0.9,0-1.7-0.1-2.6-0.4c-0.8-0.3-1.5-0.7-2.1-1.3
		c-0.6-0.6-1.1-1.3-1.4-2.1s-0.5-1.8-0.5-2.9c0-1.5,0.2-2.8,0.6-4.1c0.4-1.2,1-2.3,1.7-3.2s1.6-1.5,2.7-2c1-0.5,2.2-0.7,3.4-0.7
		c0.8,0,1.6,0.1,2.4,0.4c0.7,0.3,1.4,0.7,2,1.3s1,1.2,1.3,2c0.3,0.8,0.5,1.7,0.5,2.8C107.8,49.4,107.8,49.6,107.8,49.8z M120,59
		l0.5-2.1h-0.2c-0.6,0.8-1.3,1.4-2.2,1.8c-0.9,0.4-1.8,0.7-2.9,0.7c-0.8,0-1.6-0.2-2.3-0.5c-0.7-0.3-1.3-0.7-1.9-1.3
		c-0.5-0.6-1-1.3-1.3-2.1s-0.5-1.7-0.5-2.7s0.1-1.9,0.3-2.8s0.5-1.7,0.8-2.5c0.4-0.8,0.8-1.4,1.3-2s1.1-1.1,1.7-1.6
		c0.6-0.5,1.3-0.8,2-1c0.7-0.2,1.5-0.3,2.2-0.3c0.6,0,1.1,0.1,1.7,0.2c0.5,0.2,1,0.4,1.4,0.7c0.4,0.3,0.8,0.6,1.1,1s0.5,0.8,0.7,1.3
		h0.2l2-9.4h2.6L122.4,59H120z M134.9,43l3.4,7.9h0.3L145,43h5.9l-10.5,12.1l5.6,12.4h-5.8l-3.8-8.3h-0.5l-7,8.3h-5.8l11-13L129,43
		H134.9z"/>
	<path class="st0" d="M37.1,42.7c-2.6,0-4.8,2-5.4,5.6c-0.6,3.5,0.9,5.3,3.4,5.3c2.6,0,4.8-2,5.4-5.6C41,44.6,39.5,42.7,37.1,42.7z"
		/>
	<path class="st0" d="M51,42.8h-2.8l-0.9,5.7h2.8c2.1,0,3.2-1.2,3.5-2.9C53.9,44,53.2,42.8,51,42.8z"/>
	<path class="st0" d="M26.9,36.6l-4.8,22.8h62.6l4.8-22.8H26.9z M42.6,48.3c-0.8,4.6-3.9,7.3-7.6,7.3c-3.8,0-6.2-2.9-5.4-7.6
		c0.8-4.6,3.9-7.4,7.7-7.4C41,40.7,43.4,43.6,42.6,48.3z M55.8,45.6c-0.5,2.7-2.5,4.7-5.8,4.7h-3l-0.9,5.1h-2.2l2.4-14.6h5.2
		C54.9,40.9,56.2,42.9,55.8,45.6z M67.7,42.8h-6.9l-0.7,4.4h6l-0.4,1.9h-5.9L59,53.6h6.7l-0.4,1.9h-8.8l2.4-14.6h9.2L67.7,42.8z
		 M80.2,55.5h-2L73,44.8h-0.1l-2.2,10.7h-2.2l3.1-14.6h2l5.2,10.7h0.1l2.2-10.7h2.2L80.2,55.5z"/>
	<path class="st0" d="M161.7,40c-0.1-0.3-0.2-0.5-0.4-0.7c-0.2-0.1-0.4-0.3-0.7-0.4c-0.2-0.1-0.5-0.2-0.8-0.2
		c-0.3,0-0.5,0.1-0.8,0.2c-0.3,0.1-0.5,0.2-0.7,0.4c-0.1,0.2-0.3,0.4-0.4,0.7c-0.1,0.2-0.2,0.5-0.2,0.8s0.1,0.5,0.2,0.8
		c0.1,0.3,0.2,0.5,0.4,0.7c0.2,0.1,0.4,0.3,0.7,0.4c0.2,0.1,0.5,0.2,0.8,0.2c0.3,0,0.6-0.1,0.8-0.2c0.3-0.1,0.5-0.2,0.7-0.4
		c0.1-0.2,0.3-0.4,0.4-0.7c0.1-0.2,0.2-0.5,0.2-0.8S161.8,40.3,161.7,40z M161.2,41.7c-0.1,0.2-0.3,0.4-0.6,0.6
		c-0.2,0.1-0.5,0.2-0.8,0.2c-0.3,0-0.6-0.1-0.8-0.2c-0.2-0.1-0.5-0.4-0.6-0.6c-0.1-0.2-0.2-0.5-0.2-0.8c0-0.3,0.1-0.6,0.2-0.8
		c0.1-0.2,0.3-0.4,0.6-0.6c0.2-0.1,0.5-0.2,0.8-0.2c0.3,0,0.5,0,0.8,0.2c0.2,0.1,0.4,0.3,0.6,0.6c0.1,0.2,0.2,0.5,0.2,0.8
		C161.4,41.2,161.3,41.5,161.2,41.7z"/>
	<path class="st0" d="M160.3,40.9c0.1,0,0.1-0.1,0.2-0.2c0.1-0.1,0.1-0.2,0.1-0.3c0-0.1,0-0.2-0.1-0.3c0-0.1-0.1-0.2-0.2-0.2
		c-0.1-0.1-0.2-0.1-0.3-0.1h-0.9v1.9l0.3-0.2V41h0.5l0.4,0.7h0.4L160.3,40.9C160.3,40.9,160.3,40.9,160.3,40.9z M159.4,39.9h0.5
		c0.1,0,0.1,0,0.2,0.1c0.1,0.1,0.1,0.2,0.1,0.3c0,0.1,0,0.2-0.1,0.3c0,0.1-0.1,0.1-0.2,0.1h-0.5V39.9z"/>
</g>
</svg>
