<?xml version="1.0" encoding="utf-8"?>
<!-- Generator: Adobe Illustrator 25.3.1, SVG Export Plug-In . SVG Version: 6.00 Build 0)  -->
<svg version="1.1" id="Layer_1" xmlns="http://www.w3.org/2000/svg" xmlns:xlink="http://www.w3.org/1999/xlink" x="0px" y="0px"
	 width="180px" height="104px" viewBox="0 0 180 104" style="enable-background:new 0 0 180 104;" xml:space="preserve">
<style type="text/css">
	.st0{fill:#FFFFFF;}
</style>
<g>
	<path class="st0" d="M60.8,48.5c1.3,1.2,2.6,2.5,3.8,3.8l0,0c2,2,4.3,3.6,6.9,4.9c3.1,1.5,6.6,2,10.6,1.7c3.1-0.2,5.5-1.1,7.6-2.8
		c0.1-0.1,0.2-0.1,0.2-0.1c0,0,0,0,0.1,0.1c1.6,1.2,3,2,5.1,2.4c1.3,0.3,4.3,0.5,4.7,0.5c3.8,0,7.5-1.1,11-3.3
		c2.4-1.5,4.4-3.5,6.4-5.6c3.7-3.8,7.1-6.5,10.9-8.3c0.6-0.3,1.4-0.7,2-1.1c0.5-0.4,1-0.9,1-1.6c0-0.6-0.2-1.1-0.7-1.6
		c-0.5-0.5-1.1-0.9-1.8-1.1c-1.2-0.4-2.4-0.4-3.4-0.1c-0.9,0.3-1.8,0.6-2.6,0.9c-0.5,0.2-1,0.4-1.5,0.6l-0.2,0.1
		c-1,0.4-2,0.8-2.9,1.2c-0.7,0.3-1.5,0.6-2.3,0.9c0,0,0,0,0,0l0,0c0.3-0.3,0.6-0.6,0.8-0.9l0.2-0.3c2.1-2.6,4.3-5.3,6.4-7.9
		c2.8-3.5,5.6-6.9,8.4-10.4c0.6-0.7,1.1-1.5,1.5-2.3l0.2-0.4c0.5-1,0.3-2-0.6-2.6c-1-0.8-1.9-0.9-2.7-0.3c-0.6,0.3-1.1,0.8-1.4,1.2
		c-1,1-1.9,2-2.8,3c-0.1,0.1-0.3,0.3-0.4,0.4c-0.2,0.2-0.4,0.5-0.7,0.7l-2.5,2.6c-1.2,1.3-2.5,2.7-3.8,4c-1.2,1.3-2.4,2.6-3.6,3.9
		c0.8-1,1.7-2,2.5-3c0.8-1,1.6-2,2.5-3c1.9-2.3,3.9-4.7,6-7.1l3-3.6c0.6-0.7,1.3-1.7,2.1-2.9c0.7-1,0.5-2.2-0.4-3
		c-0.9-0.8-2-0.8-3-0.1c-0.2,0.1-0.5,0.3-0.7,0.7c-2.5,2.7-5.1,5.4-7.6,8.1c-2.6,2.7-5.1,5.5-7.7,8.2l-1,1.1
		c-0.2,0.2-0.4,0.4-0.5,0.6c-0.2,0.3-0.5,0.6-0.8,0.8c0.3-0.4,0.7-0.9,1.2-1.4c0.2-0.2,0.4-0.4,0.6-0.7c0.2-0.2,0.3-0.4,0.5-0.6
		l2.2-2.7c2.1-2.5,4.2-5.2,6.2-7.8c1-1.3,2.1-2.6,3.1-3.9c0.4-0.5,0.7-1,0.9-1.6c0.4-1,0.1-2-0.8-2.7c-1-0.7-2-0.7-2.9-0.1
		c-0.1,0.1-0.2,0.2-0.3,0.3c-0.2,0.1-0.3,0.3-0.5,0.4c-1.4,1.5-2.8,2.9-4,4.2c-2,2.1-3.8,4-5.6,5.9c-0.5,0.6-1.1,1.2-1.7,1.8
		c-0.5,0.6-1.1,1.1-1.6,1.7c-1,1-1.9,2-2.9,3c1.1-1.3,2.2-2.6,3.2-3.9c1.9-2.3,3.8-4.8,5.7-7.3c0.7-0.9,0.7-1.8,0-2.7
		c-0.8-0.9-1.8-1.1-2.8-0.6c-0.7,0.3-1.2,0.7-1.7,1.3c-3,3.1-6,6.2-9,9.3c-2.8,3-5.7,5.9-8.4,8.8L90,28.6c0,0-0.1,0.1-0.2,0.2
		c-0.1,0.1-0.1,0.2-0.2,0.3L89.6,29c-0.2-0.2-0.3-0.3-0.4-0.4l0-0.1c-0.6-0.6-1.3-1.3-1.9-2c-0.6-0.7-1.3-1.4-1.9-2L73.6,12.1
		c-0.8-0.9-1.7-1.7-2.6-2.5c-0.4-0.4-0.8-0.7-1.2-1.1C69,8,68,8,67,8.7c-0.8,0.7-1,1.7-0.5,2.5c0.4,0.9,0.9,1.7,1.4,2.2l0.8,0.9
		c1.8,2.1,3.6,4.3,5.2,6.4c0.5,0.7,1,1.3,1.6,1.9c0.3,0.4,0.6,0.7,0.9,1.1c-0.8-0.9-1.7-1.8-2.5-2.6c-1.1-1.1-2.1-2.2-3.2-3.4
		c-2.2-2.4-4.6-4.8-6.9-7.3l-3.6-3.8c-0.2-0.4-0.9-0.9-1.2-1.1c-0.9-0.6-1.8-0.5-2.8,0.3c-0.8,0.8-1,1.7-0.5,2.6
		c0.3,0.7,0.6,1.2,1,1.6l0.2,0.2c2.7,3.4,5.5,6.8,8.1,10.2c0.7,0.9,1.4,1.8,2.1,2.6c0.7,0.9,1.4,1.8,2.1,2.7l0.1,0.2
		c0.3,0.3,0.6,0.7,0.9,1.1l0,0c-0.5-0.5-0.9-1-1.4-1.5c-0.9-1-1.9-2.1-2.9-3.1c-3.2-3.5-6.5-7-9.8-10.5l0,0c-1-1.2-2.4-2.6-3.8-4
		c-0.8-0.8-1.9-0.9-2.8-0.3c-1,0.7-1.3,1.7-0.9,2.8c0.3,0.6,0.6,1.3,1,1.9c2,2.4,3.9,4.8,6,7.3c1.5,1.8,3,3.6,4.6,5.5
		c0.7,0.9,1.5,1.8,2.3,2.6l0.2,0.3c0.4,0.4,0.8,0.9,1.2,1.4c0.4,0.4,0.8,0.9,1.1,1.3c0,0,0,0-0.1-0.1l-3.8-4.1L61,26.3
		c-1.8-1.9-3.7-3.9-5.5-5.9c-1.9-2-3.8-4-5.3-5.4c-0.9-0.9-1.8-0.9-2.8-0.1c-1.1,0.9-1.4,2-0.8,3.1c0.6,1,1.3,2.1,2.3,3.3
		c1.5,1.9,3,3.8,4.6,5.6c1.8,2.2,3.6,4.4,5.3,6.6c1.6,2,3.2,4,4.9,6c0.1,0.1,0.2,0.3,0.3,0.4l0.1,0.1c-0.1,0-0.1,0-0.2,0
		c-0.1,0-0.2,0-0.3-0.1c-0.2-0.1-0.5-0.2-0.7-0.3c-0.2-0.1-0.5-0.2-0.7-0.3c-0.2-0.1-0.5-0.2-0.7-0.3c-0.2-0.1-0.5-0.2-0.7-0.3
		c-0.3-0.1-0.5-0.2-0.8-0.3c-0.3-0.1-0.5-0.2-0.8-0.3c-1.6-0.7-3.2-1.2-4.6-1.7c-1.7-0.5-3.4-0.3-4.8,0.7c-0.7,0.5-1,1.1-1,1.7
		c0,0.7,0.3,1.2,0.9,1.7c0.4,0.3,0.9,0.6,1.6,1l0.1,0h0.1c2.6,1.3,5.3,2.8,7.5,4.9C59.6,47.2,60.2,47.8,60.8,48.5z M90,54.4
		c0,0-0.2,0-0.4-0.1l-2.8-2C85,51,83,49.6,81.3,47.9c-1.9-1.9-2.9-3.3-3.4-5c-0.6-1.8-0.4-3.9,0.6-5.6c0.9-1.6,2.6-2.7,4.5-2.9
		c0.2,0,0.3,0,0.4-0.1c0.1,0,0.2,0,0.4,0c1.4,0,2.6,0.5,3.9,1.7c0.2,0.1,0.3,0.3,0.5,0.5c0.1,0.1,0.2,0.2,0.3,0.3l0.7,0.7
		c0.1,0.1,0.1,0.2,0.1,0.4c-0.4,0.7-0.8,1.4-1.2,2.1c-0.4,0.7-0.7,1.4-1.2,2.1c-0.1,0.2-0.3,0.7-0.3,1c0,0.2,0.1,0.3,0.4,0.5l0.1,0
		c0.1,0,0.2-0.1,0.3-0.1h0.1l0.4-0.4c0.6-0.8,1.4-1.2,2.2-1.2c0.9,0,1.6,0.4,2.1,1.2c0.1,0.1,0.2,0.2,0.5,0.3l0.1,0
		c0,0,0.1,0.1,0.3,0.1h0.1l0.3-0.3v-0.1c0-0.2,0-0.3-0.1-0.4c0-0.2-0.1-0.4-0.2-0.5c-0.8-1.5-1.6-2.9-2.4-4.2
		c-0.2-0.3-0.1-0.4,0-0.6c0.2-0.1,0.3-0.2,0.4-0.3c0-0.1,0.1-0.1,0.2-0.2l0.3-0.3c1.7-1.8,3.7-2.5,5.7-2.1c2.1,0.4,3.8,2,4.6,4.1
		c0.8,2.1,0.6,3.9-0.5,5.9c-1.2,2-2.8,3.8-4.6,5.1c-1.4,1-2.8,2-4.1,3c-0.4,0.3-0.8,0.6-1.2,0.8C90.9,53.8,90.5,54.1,90,54.4z
		 M89.9,39l1.1,1.9h-2.3L89.9,39z M50,38.7c0-0.3,0.3-0.5,0.6-0.7c1.3-0.7,2.6-0.9,4-0.4c0.8,0.3,1.5,0.6,2.3,1l3,1.2
		c1.1,0.4,2.2,0.7,3.3,1l1.2,0.3c0.7,0.3,1.2,0,1.4-0.4l0-0.1c0.1-0.4-0.1-0.9-0.3-1.1c-1.4-1.7-2.8-3.4-4.1-5.1
		c-0.3-0.4-0.7-0.8-1-1.2c-0.3-0.4-0.7-0.8-1-1.2c-1.5-1.9-3.1-3.9-4.7-5.8c-2.1-2.6-4.2-5.2-6.3-7.9c-0.6-0.7-0.7-1.3-0.5-1.8
		c0.1-0.3,0.4-0.6,0.8-0.7c0.2-0.1,0.5,0,0.8,0.3c0.7,0.6,1.3,1.2,2,1.9c2.7,2.9,5.3,5.7,7.9,8.4l5.1,5.4c0.2,0.2,0.3,0.3,0.5,0.4
		c0.1,0.1,0.2,0.2,0.3,0.3c0.5,0.3,1,0.3,1.4-0.1c0.4-0.4,0.5-0.9,0.2-1.5l-0.6-0.9c-0.8-1-1.7-2-2.5-3c-0.8-1-1.7-2-2.5-3
		c-3.6-4.3-7.1-8.5-10.3-12.4c-0.4-0.5-0.7-1-0.9-1.5c-0.3-0.6-0.2-1,0.3-1.5c0.4-0.3,0.8-0.3,1.4,0.3L52,9.2c1.4,1.5,2.9,3,4.4,4.5
		l7.6,8.2c1.8,2,3.6,3.9,5.8,6.2c0.2,0.2,0.3,0.3,0.5,0.4c0.1,0.1,0.3,0.2,0.5,0.4c0.3,0.2,0.5,0.3,0.8,0.2c0.2,0,0.5-0.2,0.7-0.5
		c0.4-0.5,0.4-1,0-1.5c-0.3-0.4-0.5-0.7-0.8-1.1c-0.3-0.3-0.5-0.7-0.8-1.1l-3.7-4.2c-2.5-3.2-5.9-7.4-9.2-11.5
		c-0.4-0.5-0.6-0.9-0.8-1.3c-0.2-0.3-0.2-0.7,0.5-1.3c0.2-0.2,0.6-0.4,1.2,0.1l5.1,5.1c1.3,1.3,2.6,2.7,3.9,4.1
		c1.3,1.4,2.6,2.8,3.9,4.1c1.7,1.8,3.4,3.6,5,5.3c0.2,0.2,0.3,0.3,0.5,0.4c0.1,0.1,0.3,0.2,0.5,0.4c0.5,0.3,1,0.3,1.4-0.1
		c0.4-0.4,0.5-1,0.3-1.5c-0.1-0.4-0.4-0.6-0.6-0.8c-0.5-0.5-1-1.1-1.4-1.7c-0.5-0.6-1-1.2-1.5-1.7c-1-1.2-1.9-2.3-2.9-3.5
		c-1-1.1-1.9-2.3-2.9-3.5c-0.6-0.7-1.1-1.4-1.6-2.1l-0.1-0.3l0-0.1c-0.3-0.4-0.4-0.7-0.3-1c0.2-0.3,0.4-0.6,0.6-0.7
		c0.3-0.1,0.7,0,1,0.3c1,0.8,1.8,1.6,2.6,2.4c4.7,4.9,9.4,9.8,14,14.6l3,3.1c0.8,0.8,1.1,0.7,1.7,0.2l0.3-0.2l3.8-4
		c4.2-4.4,8.6-9,12.9-13.6c0.2-0.2,0.5-0.5,0.7-0.7c0.4-0.5,0.8-0.9,1.3-1.3c0.4-0.4,0.7-0.6,1.1-0.6c0.4-0.2,0.7-0.1,1,0.2
		c0.2,0.2,0.3,0.6,0.1,0.9c-0.2,0.5-0.4,0.8-0.7,1.1c-0.9,1.1-1.8,2.1-2.6,3.2c-1.3,1.5-2.5,3.1-3.8,4.6c-1.3,1.5-2.6,3.1-3.5,4.3
		l-0.1,0.1c-0.2,0.2-0.4,0.5-0.4,0.8c0,0.1,0,0.2,0,0.2c0,0.4,0,0.8,0.3,1c0.2,0.2,0.8,0.6,1.7-0.1c0,0,0.1,0,0.1-0.1
		c0.1-0.1,0.3-0.2,0.3-0.4c1.6-1.7,3.2-3.4,4.8-5c1.9-2,3.8-4,5.7-6c2.1-2.2,4.1-4.4,6.2-6.6c0.3-0.3,0.7-0.6,1.2-1l0.3-0.3
		c0.3-0.2,0.7-0.4,1.1-0.1c0.5,0.3,0.7,0.7,0.5,1.2c-0.3,0.7-0.6,1.1-1,1.6c-2.2,2.8-5.1,6.4-8,10l-1.8,2.2
		c-0.2,0.2-0.4,0.4-0.5,0.7c-0.3,0.4-0.6,0.7-0.9,1.1l0,0.1c-0.9,1.1-1.8,2.2-2.6,3.3c-0.1,0.1-0.5,0.6-0.5,1.1c0,0,0,1,0.5,1.2
		c0.4,0.1,1.1,0,1.3-0.2c0.3-0.3,0.6-0.5,0.9-0.8c0.3-0.3,0.5-0.5,0.8-0.8l0.1-0.1c1.3-1.3,2.6-2.7,3.8-4.1c1.3-1.4,2.6-2.8,3.9-4.1
		l8.4-9c0.4-0.4,0.7-0.7,1.1-1c0.5-0.3,0.9-0.3,1.4,0.1c0.4,0.4,0.5,0.9,0.1,1.4c-0.2,0.2-0.3,0.4-0.4,0.6c-0.1,0.2-0.2,0.3-0.4,0.5
		c-1.3,1.7-2.7,3.5-4.1,5.3c-2.5,2.9-5,6-7.5,8.9c-0.7,0.8-1.3,1.5-2,2.3c-0.6,0.8-1.3,1.5-1.9,2.3c-0.2,0.2-0.4,0.5-0.6,1
		c-0.2,0.5-0.1,1,0.2,1.4c0.4,0.4,1,0.4,1.4,0.1c0.3-0.2,0.6-0.5,0.8-0.7c0.8-0.9,1.6-1.8,2.4-2.6c0.8-0.9,1.7-1.8,2.5-2.7
		c1.1-1.2,2.3-2.5,3.5-3.7c1.2-1.3,2.4-2.5,3.5-3.7c1-1,2-2,2.8-2.9c0.6-0.6,1-0.6,1.5-0.2c0.3,0.3,0.5,0.5,0.5,0.8
		c0,0.2-0.1,0.5-0.3,0.8l-0.3,0.4c-2.2,2.9-4,5.2-5.6,7.3c-2.2,2.7-4.6,5.6-6.8,8.4c-0.8,1-1.6,1.9-2.4,2.9c-0.8,1-1.6,1.9-2.4,2.9
		c-0.2,0.2-0.6,0.9-0.4,1.4c0.2,0.5,0.7,0.5,1,0.4c0,0,0.1,0,0.1,0l0.2,0c1.9-0.2,3.7-1,5.4-1.8c0.5-0.2,1-0.4,1.4-0.6
		c1.2-0.5,2.4-1,3.7-1.3c0.9-0.3,2-0.1,3.1,0.6c0.5,0.3,0.7,0.5,0.7,0.8c0,0.2-0.2,0.5-0.6,0.8c-0.6,0.4-1.2,0.9-1.9,1.2
		c-3.9,1.8-7.6,4.6-11.2,8.7c-1.8,1.9-3.7,3.9-6.2,5.4c-3.8,2.4-10.1,3.9-15.5,2c-0.6-0.2-1.1-0.5-1.7-0.8c-0.2-0.1-0.4-0.2-0.6-0.3
		c-0.2-0.1-0.4-0.2-0.6-0.4c-0.1-0.1-0.2-0.1-0.3-0.2l0.2-0.2c0.8-0.5,1.5-1,2.2-1.5c2.4-1.7,4.6-3.2,6.4-5.2
		c1.4-1.6,2.6-3.2,3.2-5.3c0.6-2.6,0.1-5.2-1.4-7c-1.5-1.8-3.6-2.8-6.1-2.8h-0.3c-1.4,0-2.7,0.6-4.2,2c-0.1,0.1-0.3,0.3-0.4,0.4
		c-0.3,0.2-0.5,0.5-0.7,0.7c-0.1,0.1-0.1,0.2-0.2,0.2c0,0-0.1,0.1-0.1,0.1l-0.2-0.2c-0.1-0.1-0.3-0.3-0.4-0.4
		c-0.1-0.2-0.3-0.3-0.4-0.5c-1.6-1.6-3.3-2.4-5.2-2.4h-0.1c-3.5,0-6.7,2.7-7.3,6.2c-0.4,2.2,0.1,4.4,1.5,6.7
		c1.4,2.2,3.5,4.2,6.5,6.3c0.4,0.3,0.9,0.6,1.4,0.9c0.5,0.3,1,0.7,1.4,1c0.2,0.1,0.5,0.3,0.7,0.4c0.2,0.2,0.5,0.3,0.7,0.4
		c0.1,0.1,0.1,0.1,0.2,0.2c-0.6,0.6-1.4,1-2.3,1.4c-2,0.7-4.2,1.1-7.1,1.1c-4.6-0.1-8.9-1.9-12.7-5.4c-0.5-0.5-1-1-1.6-1.5
		s-1-1-1.5-1.5c-0.9-0.9-1.9-1.9-2.9-2.8c-2.5-2.4-5.4-4.4-8.7-5.8C49.9,39.8,49.9,39.1,50,38.7z M70.3,27.2c0,0.1,0.1,0.1,0.1,0.2
		C70.4,27.3,70.4,27.3,70.3,27.2L70.3,27.2z"/>
	<path class="st0" d="M34.7,71.4c-0.9,0-1.7,0.1-2.2,0.2v8.9h1.2v-3.6C34,77,34.3,77,34.6,77c1.1,0,2.1-0.3,2.8-1
		c0.5-0.5,0.7-1.1,0.7-1.9c0-0.8-0.3-1.5-0.8-1.9C36.7,71.7,35.8,71.4,34.7,71.4z M34.6,76c-0.4,0-0.7,0-1-0.1v-3.5
		c0.2-0.1,0.6-0.1,1.1-0.1c1.3,0,2.1,0.6,2.1,1.8C36.8,75.3,36,76,34.6,76z"/>
	<path class="st0" d="M44.4,76.5h-0.1c0-1.3-0.5-2.7-2.5-2.7c-0.8,0-1.6,0.2-2.1,0.6l0.3,0.8c0.5-0.3,1.1-0.5,1.7-0.5
		c1.3,0,1.5,1,1.5,1.5v0.1c-2.5,0-3.9,0.8-3.9,2.4c0,0.9,0.7,1.9,2,1.9c0.9,0,1.6-0.5,2-1l0.1,0.8h1.1c-0.1-0.4-0.1-1-0.1-1.6V76.5z
		 M43,78.7c-0.2,0.5-0.7,1.1-1.6,1.1c-0.6,0-1.1-0.4-1.1-1.1c0-1.3,1.5-1.5,2.7-1.5v1.1h0.1C43.1,78.4,43.1,78.6,43,78.7z"/>
	<path class="st0" d="M48,72.2l-1.1,0.3V74h-1v0.9h1v3.5c0,0.8,0.1,1.3,0.5,1.7c0.3,0.3,0.7,0.5,1.3,0.5c0.5,0,0.8-0.1,1-0.2
		l-0.1-0.9c-0.1,0-0.4,0.1-0.7,0.1c-0.7,0-0.9-0.5-0.9-1.3v-3.5h1.7V74H48V72.2z"/>
	<path class="st0" d="M52.7,75.3L52.6,74h-1c0,0.6,0.1,1.3,0.1,2v4.5h1.2V77c0-0.2,0-0.4,0.1-0.5c0.2-0.9,0.8-1.5,1.6-1.5
		c0.2,0,0.3,0,0.4,0v-1.1c-0.1,0-0.2,0-0.3,0C53.7,73.9,53,74.4,52.7,75.3z"/>
	<path class="st0" d="M57.2,71.5c-0.4,0-0.7,0.3-0.7,0.7c0,0.4,0.3,0.7,0.7,0.7c0.5,0,0.8-0.3,0.8-0.7
		C57.9,71.8,57.6,71.5,57.2,71.5z"/>
	<rect x="56.6" y="74" class="st0" width="1.2" height="6.5"/>
	<path class="st0" d="M63.3,74.8c0.6,0,1.1,0.1,1.4,0.3l0.3-0.9c-0.3-0.2-0.9-0.3-1.6-0.3c-2.1,0-3.5,1.4-3.5,3.4s1.3,3.3,3.2,3.3
		c0.9,0,1.6-0.2,1.9-0.4l-0.2-0.9c-0.3,0.1-0.8,0.3-1.4,0.3c-1.3,0-2.3-0.9-2.3-2.4C61,75.9,61.8,74.8,63.3,74.8z"/>
	<path class="st0" d="M66.8,70.9L66.8,70.9v9.6H68v-2.4l0.6-0.7l2.2,3.1h1.4l-2.9-3.8l2.5-2.7h-1.4l-1.9,2.2
		c-0.2,0.2-0.4,0.5-0.6,0.7v-6C67.9,70.9,66.8,70.9,66.8,70.9z"/>
	<path class="st0" d="M84.4,74.8h-1.7c-0.2,1.1-0.5,2-0.9,2.7c-0.6-0.6-1.3-1.5-2-2.3v-0.1c1.5-0.7,2.1-1.6,2.1-2.6
		c0-1.4-1.1-2.3-2.5-2.3c-1.9,0-2.8,1.3-2.8,2.6c0,0.7,0.3,1.5,0.8,2c-1.2,0.6-2,1.6-2,2.9c0,1.5,1.1,2.9,3.4,2.9
		c1.2,0,2.1-0.4,2.9-1c0.3,0.3,0.5,0.6,0.8,0.8h2.2c-0.6-0.7-1.2-1.3-1.7-1.9C83.6,77.6,84.1,76.4,84.4,74.8z M79.3,71.4
		c0.7,0,1,0.6,1,1.1c0,0.7-0.5,1.2-1.4,1.7c-0.5-0.5-0.7-1-0.7-1.6C78.2,72,78.6,71.4,79.3,71.4z M79,79.3c-1.1,0-1.9-0.8-1.9-1.8
		c0-0.8,0.6-1.4,1-1.7c0.9,1.1,1.9,2.2,2.5,2.8C80.3,79,79.7,79.3,79,79.3z"/>
	<polygon class="st0" points="89.3,71.5 88.1,71.5 88.1,80.5 93.2,80.5 93.2,79.5 89.3,79.5 	"/>
	<rect x="94.9" y="74" class="st0" width="1.2" height="6.5"/>
	<path class="st0" d="M95.5,71.5c-0.4,0-0.7,0.3-0.7,0.7c0,0.4,0.3,0.7,0.7,0.7c0.5,0,0.8-0.3,0.8-0.7C96.3,71.8,96,71.5,95.5,71.5z
		"/>
	<path class="st0" d="M103,76.8v3.7h1.2v-3.9c0-2.2-1.4-2.8-2.3-2.8c-1.1,0-1.8,0.6-2.1,1.2l-0.2-1h-1c0,0.5,0.1,1.1,0.1,1.8v4.7
		h1.2v-3.9c0-0.2,0-0.4,0.1-0.5c0.2-0.7,0.8-1.2,1.6-1.2C102.6,74.8,103,75.7,103,76.8z"/>
	<path class="st0" d="M110.2,80.5h1.1c-0.1-0.4-0.1-1-0.1-1.6v-2.4c0-1.3-0.5-2.7-2.5-2.7c-0.8,0-1.6,0.2-2.1,0.6l0.3,0.8
		c0.5-0.3,1.1-0.5,1.7-0.5c1.3,0,1.5,1,1.5,1.5v0.1c-2.5,0-3.9,0.8-3.9,2.4c0,0.9,0.7,1.9,2,1.9c0.8,0,1.5-0.4,1.9-0.9L110.2,80.5z
		 M109.9,78.7c-0.2,0.5-0.7,1.1-1.6,1.1c-0.6,0-1.1-0.4-1.1-1.1c0-1.3,1.5-1.5,2.7-1.5l0.1,1.1C110,78.4,110,78.6,109.9,78.7z"/>
	<path class="st0" d="M119.4,71.5c-0.9,0-1.8,0.1-2.5,0.2v8.9c0.6,0.1,1.3,0.1,2.1,0.1c1.9-0.1,3.3-0.6,4.1-1.4
		c0.8-0.8,1.3-2,1.3-3.5s-0.5-2.5-1.3-3.2C122.3,71.9,121.1,71.5,119.4,71.5z M119.5,79.6c-0.5,0-0.9,0-1.2-0.1l-0.1-7.1
		c0.3-0.1,0.8-0.1,1.4-0.1c2.5,0,3.7,1.4,3.7,3.5C123.3,78.2,121.9,79.6,119.5,79.6z"/>
	<path class="st0" d="M127.6,80.5V77c0-0.2,0-0.4,0.1-0.5c0.2-0.9,0.8-1.5,1.6-1.5c0.2,0,0.3,0,0.4,0v-1.1c-0.1,0-0.2,0-0.3,0
		c-0.8,0-1.5,0.5-1.8,1.4h-0.1V74h-1c0,0.6,0.1,1.3,0.1,2v4.5H127.6z"/>
	<path class="st0" d="M133.3,73.8c-0.8,0-1.6,0.2-2.1,0.6l0.3,0.8c0.5-0.3,1.1-0.5,1.7-0.5c1.3,0,1.5,1,1.5,1.5v0.1
		c-2.5,0-3.9,0.8-3.9,2.4c0,0.9,0.7,1.9,2,1.9c0.9,0,1.6-0.5,2-1l0.1,0.8h1.1c-0.1-0.4-0.2-3.9-0.2-3.9
		C135.8,75.2,135.3,73.8,133.3,73.8z M134.6,78.7c-0.2,0.5-0.7,1.1-1.6,1.1c-0.6,0-1.1-0.4-1.1-1.1c0-1.3,1.5-1.5,2.7-1.5
		C134.6,77.2,134.7,78.6,134.6,78.7z"/>
	<path class="st0" d="M141.5,73.9c-0.4,0-0.9,0.1-1.2,0.3c-0.4,0.2-0.7,0.5-0.8,0.8v-4h-1.2v9.5h1.2v-3.9c0-0.2,0-0.4,0.1-0.6
		c0.2-0.6,0.8-1.2,1.6-1.2c1.1,0,1.5,0.9,1.5,1.9v3.7h1.2v-3.9C143.8,74.4,142.4,73.9,141.5,73.9z"/>
	<rect x="146.2" y="74" class="st0" width="1.2" height="6.5"/>
	<path class="st0" d="M146.8,72.9c0.5,0,0.8-0.3,0.8-0.7c0-0.4-0.3-0.7-0.7-0.7c-0.4,0-0.7,0.3-0.7,0.7
		C146.1,72.6,146.4,72.9,146.8,72.9z"/>
	<polygon class="st0" points="56.3,95.1 57.5,95.1 57.5,91 60.9,91 60.9,90 57.5,90 57.5,87 61.2,87 61.2,86 56.3,86 	"/>
	<path class="st0" d="M65.7,88.4c-1.8,0-3.2,1.3-3.2,3.4c0,2,1.4,3.3,3.1,3.3c1.6,0,3.2-1,3.2-3.4C68.8,89.8,67.5,88.4,65.7,88.4z
		 M65.6,94.3c-1.2,0-2-1.1-2-2.5c0-1.2,0.6-2.5,2-2.5c1.4,0,1.9,1.4,1.9,2.5C67.6,93.3,66.7,94.3,65.6,94.3z"/>
	<path class="st0" d="M76,88.6h-1v4c0,0.2,0,0.4-0.1,0.6c-0.2,0.5-0.8,1.1-1.6,1.1c-1.1,0-1.4-0.8-1.4-2.1v-3.6h-1.2v3.8
		c0,2.3,1.2,2.8,2.2,2.8c1.2,0,1.8-0.7,2.1-1.2l0.1,1.1h1c0-0.5-0.1-1.1-0.1-1.8V88.6z"/>
	<path class="st0" d="M82,88.4c-1.1,0-1.8,0.6-2.1,1.2l-0.1-1.1h-1c0,0.5,0.1,1.1,0.1,1.8V95h1.2v-3.9c0-0.2,0-0.4,0.1-0.5
		c0.2-0.7,0.8-1.2,1.6-1.2c1.1,0,1.5,0.9,1.5,1.9V95h1.2v-3.9C84.3,89,82.9,88.4,82,88.4z"/>
	<path class="st0" d="M92.3,85.6h-1.2v3.9c-0.3-0.5-1-1-2-1c-1.6,0-2.9,1.3-2.9,3.5c0,2,1.2,3.3,2.8,3.3c1.1,0,1.8-0.5,2.2-1.3
		l0.1,1.1h1.1c0-0.4-0.1-1.1-0.1-1.7V85.6z M91.1,92.3c0,0.2,0,0.3-0.1,0.5c-0.2,0.9-0.9,1.4-1.7,1.4c-1.3,0-1.9-1.1-1.9-2.4
		c0-1.4,0.7-2.5,1.9-2.5c0.9,0,1.5,0.6,1.7,1.4c0,0.1,0.1,0.3,0.1,0.5V92.3z"/>
	<path class="st0" d="M99.5,91.1c-0.1-1.3-0.6-2.7-2.6-2.7c-0.8,0-1.6,0.2-2.1,0.6l0.3,0.8c0.5-0.3,1.1-0.5,1.7-0.5
		c1.3,0,1.5,1,1.5,1.5v0.1c-2.5,0-3.9,0.8-3.9,2.4c0,0.9,0.7,1.9,2,1.9c0.9,0,1.6-0.5,2-1l0.1,0.8h1.1c-0.1-0.4-0.1-1-0.1-1.6V91.1z
		 M98.1,93.3c-0.2,0.5-0.7,1.1-1.6,1.1c-0.6,0-1.1-0.4-1.1-1.1c0-1.3,1.5-1.5,2.7-1.5v1.1h0.1C98.2,93,98.2,93.2,98.1,93.3z"/>
	<path class="st0" d="M103.1,86.7L102,87v1.6h-1v0.9h1V93c0,0.8,0.1,1.3,0.5,1.7c0.3,0.3,0.7,0.5,1.3,0.5c0.5,0,0.8-0.1,1-0.2
		l-0.1-0.9c-0.1,0-0.4,0.1-0.7,0.1c-0.7,0-0.9-0.5-0.9-1.3v-3.5h1.7v-0.9h-1.7C103.1,88.5,103.1,86.7,103.1,86.7z"/>
	<path class="st0" d="M107.3,86c-0.4,0-0.7,0.3-0.7,0.7c0,0.4,0.3,0.7,0.7,0.7c0.5,0,0.8-0.3,0.8-0.7C108,86.3,107.7,86,107.3,86z"
		/>
	<rect x="106.7" y="88.6" class="st0" width="1.2" height="6.5"/>
	<path class="st0" d="M113.1,88.4c-1.8,0-3.2,1.3-3.2,3.4c0,2,1.4,3.3,3.1,3.3c1.6,0,3.2-1,3.2-3.4C116.2,89.8,115,88.4,113.1,88.4z
		 M113.1,94.3c-1.2,0-2-1.1-2-2.5c0-1.2,0.6-2.5,2-2.5c1.4,0,1.9,1.4,1.9,2.5C115,93.3,114.2,94.3,113.1,94.3z"/>
	<path class="st0" d="M121.5,88.4c-1.1,0-1.8,0.6-2.1,1.2l-0.1-1.1h-1c0,0.5,0.1,1.1,0.1,1.8V95h1.2v-3.9c0-0.2,0-0.4,0.1-0.5
		c0.2-0.7,0.8-1.2,1.6-1.2c1.1,0,1.5,0.9,1.5,1.9V95h1.2v-3.9C123.8,89,122.4,88.4,121.5,88.4z"/>
	<path class="st0" d="M122.8,82.8c-0.4,0-0.7,0-1,0.1v3.9h0.5v-1.6c0.1,0,0.3,0,0.4,0c0.5,0,0.9-0.1,1.2-0.4
		c0.2-0.2,0.3-0.5,0.3-0.8s-0.1-0.6-0.3-0.8C123.7,82.9,123.3,82.8,122.8,82.8z M122.8,84.8c-0.2,0-0.3,0-0.4,0v-1.5
		c0.1,0,0.3,0,0.5,0c0.6,0,0.9,0.2,0.9,0.8C123.8,84.5,123.4,84.8,122.8,84.8z"/>
	<polygon class="st0" points="125.3,82.9 124.8,82.9 124.8,86.8 127,86.8 127,86.3 125.3,86.3 	"/>
	<polygon class="st0" points="129.3,84.6 127.8,84.6 127.8,83.3 129.5,83.3 129.5,82.9 127.3,82.9 127.3,86.8 127.8,86.8 127.8,85
		129.3,85 	"/>
	<path class="st0" d="M130.6,82.9l-1.3,3.9h0.5l0.4-1.2h1.4l0.4,1.2h0.5l-1.3-3.9H130.6z M130.3,85.1l0.4-1.1
		c0.1-0.2,0.1-0.5,0.2-0.7c0.1,0.2,0.1,0.5,0.2,0.7l0.4,1.1H130.3z"/>
</g>
</svg>
